{
    "validarBoton" : [
        {
            "elementbutton" : "<button>",
            "title" : "Validar"
        }
    ],
    "procesarBoton" : [
        {
            "elementbutton" : "<button>",
            "title" : "Procesar",
            "procesarid" : "validacion"
        }
    ],
    "limpiarBoton" : [
        {
            "elementbutton" : "<button>",
            "title" : "Limpiar"
        }
    ],
    "actualizarBoton" : [
        {
            "elementbutton" : "<button>",
            "title" : "Actualizar"

        }
    ]
}
