{
   "pizza" :{ 

        "mostrarTamano" : [
            {
                "elementP" : "<p>",
                "titleTamano" : "Selecciona el tamaño de la pizza",
                "classObligado" : "obligatorio"
            }
        ],

        "tamano" : [
            {
               "elementInput" : "<input>",
                "type" : "radio",
                "name" : "tamano",
                "value" : "5.00",
                "elementLeft" : "<left>",
                "title" : "Pizza pequeña (5€)",
                "espacio" : "<br>"
                
            }, 
            {
                "elementInput" : "<input>",
                "type" : "radio",
                "name" : "tamano",
                "value" : "10.00",
                "elementLeft" : "<left>",
                "title" : "Pizza mediana (10€)",
                "espacio" : "<br>"
                
            }, 
            {
                "elementInput" : "<input>",
                "type" : "radio",
                "name" : "tamano",
                "value" : "15.00",
                "elementLeft" : "<left>",
                "title" : "Pizza grande (15€)",
                "espacio" : "<br>"
                
            }
        ]
    }
}

