{
    "pizzeria": {
        "inicio" : [
            {
                "elementh1" : "<h1>",
                "title" : "Pizzería con AJAX y JSON",
                "classObligado" : "nombrePizzeria"
            }
        ]
    }
 }